Chapter 7 Differential Abundance | Florida State University Microbiota Workshop 2019
…
    # Define columns to get groups.  
    # In our case, we want medians by Taxa and GroupAbbrev
    group_by(Taxa, GroupAbbrev) %>%
    
    # Summarize defines the functions that we want to group by
    # Use the column name in which you want the function to run on
    summarise(MEDIAN = median(counts), IQR = IQR(counts)) 

# View object 
LSDPD_G_MEDIAN  

## # A tibble: 76 x 4
## # Groups:   Taxa [38]
##    Taxa    GroupAbbrev MEDIAN     IQR
##    <chr>   <chr>        <dbl>   <dbl>
##  1 1076587 LSD            10     7.25
##  2 1076587 PD             17    12.5 
##  3 1076969 LSD            11    13.2 
##  4 1076969 PD             60    50.5 
##  5 1107027 LSD           490   226.  
##  6 1107027 PD           2498  2871   
##  7 1108422 LSD          7046. 1594.  
##  8 1108422 PD           5911  2291   
##  9 1108599 LSD          2351  3064.  
## 10 1108599 PD           4039  1948.  
## # ... with 66 more rows
…
