Chapter 2 Basics of R | Florida State University Microbiota Workshop 2019
…
Use the read.table function to import a space delimited text file (.txt)

2.7.3 Excel file

There are now several packages that provide functions to import Excel files. We will use the read_xlsx function from the readxl package. There are many arguments that can be inputted in this function, but we will focus on the first two. The ‘path’ argument defines the file and the ‘sheet’ argument defines the the sheet name to be read. If the ‘sheet’ argument is not defined, then the function will read the first sheet.

# Need to load the package.
library(readxl)

# Import Excel file from subfolder
XLSXimport <- read_xlsx(".\\Data\\XLSXexample.xlsx")
XLSXimport

## # A tibble: 22 x 8
##    Subject Treatment Gender   Age Height    Wt   BMI Glucose
##      <dbl> <chr>     <chr>  <dbl>  <dbl> <dbl> <dbl>   <dbl>
##  1     579 Control   F         38   63    82.3  32.1      99
##  2     586 Control   F         37   62    94.2  37.9     108
##  3     502 Control   M         62   68.6 112.   37.1      97
##  4     508 Control   F         49   64.2 108.   40.4      86
##  5     569 Control   F         46   63.8  80.9  29.9     102
##  6     568 Control   M         47   69.2 127.   41       104
##  7     556 Control   F         35   60.2  83.3  36       100
##  8     581 Control   F         49   64.5  92.1  34.6     126
##  9     577 Control   F         45   63    94.1  36.2      90
## 10     516 Control   F         25   68    94.7  31.5      87
## # ... with 12 more rows
…
